{
    "swagger": "2.0",
    "info": {
        "title": "API Documentation",
        "description": "This is a sample description for current API",
        "termsOfService": "",
        "contact": {
            "email": "hello@eyesimple.us"
        },
        "license": {
            "name": "Private License",
            "url": "http://eyesimple.us"
        },
        "version": "1.0.0"
    },
    "host": "localhost",
    "basePath": "/",
    "schemes": [
        "http",
        "https"
    ],
    "paths": {
        "/getUsers": {
            "get": {
                "summary": "Display users from database",
                "description": "-",
                "parameters": [
                    {
                        "name": "id",
                        "in": "query",
                        "description": "Id to filter by",
                        "required": true,
                        "type": "integer",
                        "format": "int64",
                        "items": {
                            "type": "string"
                        },
                        "collectionFormat": "multi"
                    }
                ],
                "responses": {
                    "200": {
                        "description": "A list with users",
                        "schema": {
                            "type": "array",
                            "items": {
                                "$ref": "#/definitions/User"
                            }
                        }
                    },
                    "400": {
                        "description": "Invalid Id value"
                    }
                }
            }
        }
    },
    "definitions": {},
    "externalDocs": {
        "description": "Find out more about us",
        "url": "http://eyesimple.us"
    }
}